\relax 
\@writefile{toc}{\contentsline {section}{\numberline {0.1}Opis aplikacji}{2}}
\@writefile{toc}{\contentsline {section}{\numberline {0.2}Opis funkcjonalno\IeC {\'s}ci}{3}}
\@writefile{toc}{\contentsline {subsection}{\numberline {0.2.1}Operacje na pixelach}{3}}
\@writefile{toc}{\contentsline {subsubsection}{Skala szaro\IeC {\'s}ci}{3}}
\@writefile{toc}{\contentsline {subsubsection}{Normalizacja}{4}}
\@writefile{toc}{\contentsline {subsubsection}{Proste operacje}{4}}
\@writefile{toc}{\contentsline {subsubsection}{Binaryzacja}{5}}
\@writefile{toc}{\contentsline {subsection}{\numberline {0.2.2}Filtry konwolucyjne}{5}}
\@writefile{toc}{\contentsline {section}{\numberline {0.3}Grafy}{6}}
\@writefile{toc}{\contentsline {subsection}{\numberline {0.3.1}Histogram}{6}}
\@writefile{toc}{\contentsline {subsection}{\numberline {0.3.2}Projekcje}{6}}
\@writefile{toc}{\contentsline {section}{\numberline {0.4}Przyk\IeC {\l }ady dzia\IeC {\l }ania}{7}}
\@writefile{toc}{\contentsline {section}{\numberline {0.5}Wnioski}{8}}
