\contentsline {section}{\numberline {0.1}Opis aplikacji}{2}
\contentsline {section}{\numberline {0.2}Opis funkcjonalno\IeC {\'s}ci}{3}
\contentsline {subsection}{\numberline {0.2.1}Operacje na pixelach}{3}
\contentsline {subsubsection}{Skala szaro\IeC {\'s}ci}{3}
\contentsline {subsubsection}{Normalizacja}{4}
\contentsline {subsubsection}{Proste operacje}{4}
\contentsline {subsubsection}{Binaryzacja}{5}
\contentsline {subsection}{\numberline {0.2.2}Filtry konwolucyjne}{5}
\contentsline {section}{\numberline {0.3}Grafy}{6}
\contentsline {subsection}{\numberline {0.3.1}Histogram}{6}
\contentsline {subsection}{\numberline {0.3.2}Projekcje}{6}
\contentsline {section}{\numberline {0.4}Przyk\IeC {\l }ady dzia\IeC {\l }ania}{7}
\contentsline {section}{\numberline {0.5}Wnioski}{8}
